C:\Users\prog\IdeaProjects\mail-campaign\src\main\java\com\picus\mail\data\ContactDto.java
C:\Users\prog\IdeaProjects\mail-campaign\src\main\java\com\picus\mail\repository\ContactRepository.java
C:\Users\prog\IdeaProjects\mail-campaign\src\main\java\com\picus\mail\controller\FileController.java
C:\Users\prog\IdeaProjects\mail-campaign\src\main\java\com\picus\mail\link\LinkGenerator.java
C:\Users\prog\IdeaProjects\mail-campaign\src\main\java\com\picus\mail\entity\ContactEntity.java
C:\Users\prog\IdeaProjects\mail-campaign\src\main\java\com\picus\mail\mail\MailSender.java
C:\Users\prog\IdeaProjects\mail-campaign\src\main\java\com\picus\mail\converter\BaseConverter.java
C:\Users\prog\IdeaProjects\mail-campaign\src\main\java\com\picus\mail\data\CampaignDto.java
C:\Users\prog\IdeaProjects\mail-campaign\src\main\java\com\picus\mail\service\ContactService.java
C:\Users\prog\IdeaProjects\mail-campaign\src\main\java\com\picus\mail\converter\ContactConverter.java
C:\Users\prog\IdeaProjects\mail-campaign\src\main\java\com\picus\mail\data\ParserReportDto.java
C:\Users\prog\IdeaProjects\mail-campaign\src\main\java\com\picus\mail\link\LinkGeneratorImpl.java
C:\Users\prog\IdeaProjects\mail-campaign\src\main\java\com\picus\mail\data\BaseDto.java
C:\Users\prog\IdeaProjects\mail-campaign\src\main\java\com\picus\mail\entity\BaseEntity.java
C:\Users\prog\IdeaProjects\mail-campaign\src\main\java\com\picus\mail\parser\ContactFileParserImpl.java
C:\Users\prog\IdeaProjects\mail-campaign\src\main\java\com\picus\mail\service\ContactServiceImpl.java
C:\Users\prog\IdeaProjects\mail-campaign\src\main\java\com\picus\mail\MailCampaignApplication.java
C:\Users\prog\IdeaProjects\mail-campaign\src\main\java\com\picus\mail\mail\MailSenderImpl.java
C:\Users\prog\IdeaProjects\mail-campaign\src\main\java\com\picus\mail\parser\ContactFileParser.java
C:\Users\prog\IdeaProjects\mail-campaign\src\main\java\com\picus\mail\data\MailDto.java
